{
    "prepare_queue": {
        "installed": [],
        "uninstalled": []
    },
    "config_munge": {
        "files": {}
    },
    "installed_plugins": {
        "cordova-plugin-camera": {
            "PACKAGE_NAME": "com.ualberta.edu.worms"
        },
        "cordova-plugin-device": {
            "PACKAGE_NAME": "com.ualberta.edu.worms"
        },
        "cordova-plugin-dialogs": {
            "PACKAGE_NAME": "com.ualberta.edu.worms"
        },
        "cordova-plugin-file": {
            "PACKAGE_NAME": "com.ualberta.edu.worms"
        },
        "cordova-plugin-file-transfer": {
            "PACKAGE_NAME": "com.ualberta.edu.worms"
        },
        "cordova-plugin-geolocation": {
            "PACKAGE_NAME": "com.ualberta.edu.worms"
        },
        "cordova-plugin-inappbrowser": {
            "PACKAGE_NAME": "com.ualberta.edu.worms"
        },
        "cordova-plugin-network-information": {
            "PACKAGE_NAME": "com.ualberta.edu.worms"
        },
        "cordova-plugin-statusbar": {
            "PACKAGE_NAME": "com.ualberta.edu.worms"
        },
        "cordova-plugin-whitelist": {
            "PACKAGE_NAME": "com.ualberta.edu.worms"
        }
    },
    "dependent_plugins": {}
}